[gd_scene load_steps=2 format=2]

[ext_resource path="res://ecs/systems/move_dir/move_dir.gd" type="Script" id=1]

[node name="MoveDir" type="Node"]

script = ExtResource( 1 )
ANGLE = null
RANDOM_ANGLE = null
SPEED = null
SPEED_FACTOR = null


