[gd_scene load_steps=3 format=2]

[ext_resource path="res://ecs-mousemove/ecs/entities/grid_entity.gd" type="Script" id=1]
[ext_resource path="res://ecs-mousemove/scenes/game_tile.tscn" type="PackedScene" id=2]

[node name="GridEntity" type="Node2D"]
script = ExtResource( 1 )
grid_offset = Vector2( 80, 80 )
tile_scene = ExtResource( 2 )

[node name="Root" type="Node2D" parent="."]
