; Engine configuration file.
; It's best edited using the editor UI and not directly,
; since the parameters that go here are not all obvious.
;
; Format:
;   [section] ; section goes between []
;   param=value ; assign values to parameters

config_version=4

_global_script_classes=[  ]
_global_script_class_icons={

}

[application]

config/name="shaders"
config/description="Shaders"
config/version="0.0.0"

[display]

window/stretch/mode="2d"
window/stretch/aspect="keep"
