[gd_scene load_steps=2 format=2]

[ext_resource path="res://ecs-ticks/systems/move_to_system.gd" type="Script" id=1]

[node name="MoveToSystem" type="Node"]
script = ExtResource( 1 )
COMPONENTS = "moveto"
