[gd_scene load_steps=3 format=2]

[ext_resource path="res://dreamlo.gd" type="Script" id=1]
[ext_resource path="res://dreamlo_score_label.gd" type="Script" id=2]

[node name="DreamLo" type="Node"]

script = ExtResource( 1 )

[node name="Score" type="Label" parent="." index="0"]

anchor_left = 0.0
anchor_top = 0.0
anchor_right = 0.0
anchor_bottom = 0.0
margin_right = 40.0
margin_bottom = 14.0
rect_pivot_offset = Vector2( 0, 0 )
rect_clip_content = false
mouse_filter = 2
mouse_default_cursor_shape = 0
size_flags_horizontal = 1
size_flags_vertical = 4
percent_visible = 1.0
lines_skipped = 0
max_lines_visible = -1
script = ExtResource( 2 )


