[gd_scene load_steps=3 format=2]

[ext_resource path="res://my_game/objects/unit/unit.tscn" type="PackedScene" id=1]
[ext_resource path="res://my_game/objects/player/player.gd" type="Script" id=2]

[node name="Player" index="0" instance=ExtResource( 1 )]

script = ExtResource( 2 )
jumps = null


