[gd_scene load_steps=4 format=2]

[ext_resource path="res://player.gd" type="Script" id=1]
[ext_resource path="res://icon.png" type="Texture" id=2]

[sub_resource type="CircleShape2D" id=1]

custom_solver_bias = 0.0
radius = 34.5443

[node name="Player" type="Area2D"]

position = Vector2( 270, 240 )
input_pickable = true
gravity_vec = Vector2( 0, 1 )
gravity = 98.0
linear_damp = 0.1
angular_damp = 1.0
audio_bus_override = false
audio_bus_name = "Master"
script = ExtResource( 1 )
_sections_unfolded = [ "Collision", "Material", "Pickable", "Transform", "Visibility", "Z Index", "collision" ]

[node name="Sprite" type="Sprite" parent="." index="0"]

texture = ExtResource( 2 )
_sections_unfolded = [ "Material", "Transform", "Visibility" ]

[node name="CollisionShape2D" type="CollisionShape2D" parent="." index="1"]

shape = SubResource( 1 )

[connection signal="area_entered" from="." to="." method="_on_Player_area_entered"]

[connection signal="body_entered" from="." to="." method="_on_Player_body_entered"]

[connection signal="body_shape_entered" from="." to="." method="_on_Player_body_shape_entered"]


